124227EC370A6F01AB0C8AA0FE27EA89.cache.js
user.agent gecko1_8

1E7DD8422F3A33D5CAD607FE283C8D4F.cache.js
user.agent ie9

68CFB692D70077154679C02BE65DE7A2.cache.js
user.agent ie10

7000BE08626758874EBE86B703E37547.cache.js
user.agent ie8

BC6651C4ED7F25F6AAEF9CEB501BA60B.cache.js
user.agent safari

Devmode:devmode.js